데이터 가공과 시각화
…
select

특정 변수들만 골라냅니다.

gapminder %>%
  select(continent, country) %>%
  distinct() # distinct data, removing duplicates  
## # A tibble: 142 x 2
##    continent country    
##    <fct>     <fct>      
##  1 Asia      Afghanistan
##  2 Europe    Albania    
##  3 Africa    Algeria    
##  4 Africa    Angola     
##  5 Americas  Argentina  
##  6 Oceania   Australia  
##  7 Europe    Austria    
##  8 Asia      Bahrain    
##  9 Asia      Bangladesh 
## 10 Europe    Belgium    
## # … with 132 more rows

filter

조건에 맞는 관측치만 골라내기

gapminder %>%
  filter(year == 1957)
## # A tibble: 142 x 6
##    country     continent  year lifeExp      pop gdpPercap
##    <fct>       <fct>     <int>   <dbl>    <int>     <dbl>
##  1 Afghanistan Asia       1957    30.3  9240934      821.
##  2 Albania     Europe     1957    59.3  1476505     1942.
##  3 Algeria     Africa     1957    45.7 10270856     3014.
##  4 Angola      Africa     1957    32.0  4561361     3828.
##  5 Argentina   Americas   1957    64.4 19610538     6857.
##  6 Australia   Oceania    1957    70.3  9712569    10950.
##  7 Austria     Europe     1957    67.5  6965860     8843.
##  8 Bahrain     Asia       1957    53.8   138655    11636.
##  9 Bangladesh  Asia       1957    39.3 51365468      662.
## 10 Belgium     Europe     1957    69.2  8989111     9715.
## # … with 132 more rows
…
arrange

오름차순으로 정렬합니다.

gapminder %>%
  arrange(gdpPercap)
## # A tibble: 1,704 x 6
##    country          continent  year lifeExp      pop gdpPercap
##    <fct>            <fct>     <int>   <dbl>    <int>     <dbl>
##  1 Congo, Dem. Rep. Africa     2002    45.0 55379852      241.
##  2 Congo, Dem. Rep. Africa     2007    46.5 64606759      278.
##  3 Lesotho          Africa     1952    42.1   748747      299.
##  4 Guinea-Bissau    Africa     1952    32.5   580653      300.
##  5 Congo, Dem. Rep. Africa     1997    42.6 47798986      312.
##  6 Eritrea          Africa     1952    35.9  1438760      329.
##  7 Myanmar          Asia       1952    36.3 20092996      331 
##  8 Lesotho          Africa     1957    45.0   813338      336.
##  9 Burundi          Africa     1952    39.0  2445618      339.
## 10 Eritrea          Africa     1957    38.0  1542611      344.
## # … with 1,694 more rows

내림차순으로 정렬하려면 desc() 함수를 사용합니다.

gapminder %>%
  arrange(desc(gdpPercap))
## # A tibble: 1,704 x 6
##    country   continent  year lifeExp     pop gdpPercap
##    <fct>     <fct>     <int>   <dbl>   <int>     <dbl>
##  1 Kuwait    Asia       1957    58.0  212846   113523.
##  2 Kuwait    Asia       1972    67.7  841934   109348.
##  3 Kuwait    Asia       1952    55.6  160000   108382.
##  4 Kuwait    Asia       1962    60.5  358266    95458.
##  5 Kuwait    Asia       1967    64.6  575003    80895.
##  6 Kuwait    Asia       1977    69.3 1140357    59265.
##  7 Norway    Europe     2007    80.2 4627926    49357.
##  8 Kuwait    Asia       2007    77.6 2505559    47307.
##  9 Singapore Asia       2007    80.0 4553009    47143.
## 10 Norway    Europe     2002    79.0 4535591    44684.
## # … with 1,694 more rows

mutate

변수를 변환해서 새로운 변수를 생성하는 함수입니다. 인구수를 백만명단위로 변환해봅시다.

gapminder %>%
  mutate(pop = pop/1000000)
## # A tibble: 1,704 x 6
##    country     continent  year lifeExp   pop gdpPercap
##    <fct>       <fct>     <int>   <dbl> <dbl>     <dbl>
##  1 Afghanistan Asia       1952    28.8  8.43      779.
##  2 Afghanistan Asia       1957    30.3  9.24      821.
##  3 Afghanistan Asia       1962    32.0 10.3       853.
##  4 Afghanistan Asia       1967    34.0 11.5       836.
##  5 Afghanistan Asia       1972    36.1 13.1       740.
##  6 Afghanistan Asia       1977    38.4 14.9       786.
##  7 Afghanistan Asia       1982    39.9 12.9       978.
##  8 Afghanistan Asia       1987    40.8 13.9       852.
##  9 Afghanistan Asia       1992    41.7 16.3       649.
## 10 Afghanistan Asia       1997    41.8 22.2       635.
## # … with 1,694 more rows

총국민소득을 구해봅시다.

gapminder %>%
  mutate(gdp = gdpPercap*pop)
## # A tibble: 1,704 x 7
##    country     continent  year lifeExp      pop gdpPercap          gdp
##    <fct>       <fct>     <int>   <dbl>    <int>     <dbl>        <dbl>
##  1 Afghanistan Asia       1952    28.8  8425333      779.  6567086330.
##  2 Afghanistan Asia       1957    30.3  9240934      821.  7585448670.
##  3 Afghanistan Asia       1962    32.0 10267083      853.  8758855797.
##  4 Afghanistan Asia       1967    34.0 11537966      836.  9648014150.
##  5 Afghanistan Asia       1972    36.1 13079460      740.  9678553274.
##  6 Afghanistan Asia       1977    38.4 14880372      786. 11697659231.
##  7 Afghanistan Asia       1982    39.9 12881816      978. 12598563401.
##  8 Afghanistan Asia       1987    40.8 13867957      852. 11820990309.
##  9 Afghanistan Asia       1992    41.7 16317921      649. 10595901589.
## 10 Afghanistan Asia       1997    41.8 22227415      635. 14121995875.
## # … with 1,694 more rows
…
대륙별, 년도별 평균 기대수명?

gapminder %>%
  group_by(continent, year) %>%
  summarize(meanLifeExp = mean(lifeExp))
## # A tibble: 60 x 3
## # Groups:   continent [5]
##    continent  year meanLifeExp
##    <fct>     <int>       <dbl>
##  1 Africa     1952        39.1
##  2 Africa     1957        41.3
##  3 Africa     1962        43.3
##  4 Africa     1967        45.3
##  5 Africa     1972        47.5
##  6 Africa     1977        49.6
##  7 Africa     1982        51.6
##  8 Africa     1987        53.3
##  9 Africa     1992        53.6
## 10 Africa     1997        53.6
## # … with 50 more rows
…
